{
    "docs": [
        {
            "movieId": 1045172,
            "nomination": {
                "award": {
                    "title": "Золотой глобус",
                    "year": 2023
                },
                "title": "Лучшая мужская роль на ТВ (драма)"
            },
            "winning": true,
            "createdAt": "2023-03-05T20:02:21.619Z",
            "updatedAt": "2023-03-05T20:02:21.619Z",
            "id": "6404f54df5a911444ac8d11b"
        },
        {
            "movieId": 4656717,
            "nomination": {
                "award": {
                    "title": "Берлинский кинофестиваль",
                    "year": 2023
                },
                "title": "Золотой Медведь"
            },
            "winning": false,
            "createdAt": "2023-03-05T20:02:24.867Z",
            "updatedAt": "2023-03-05T20:02:24.867Z",
            "id": "6404f550f5a911444ac8e145"
        },
        {
            "movieId": 5081047,
            "nomination": {
                "award": {
                    "title": "Берлинский кинофестиваль",
                    "year": 2023
                },
                "title": "Золотой Медведь"
            },
            "winning": false,
            "createdAt": "2023-03-05T20:07:46.318Z",
            "updatedAt": "2023-03-05T20:07:46.318Z",
            "id": "6404f6920d8199489c5fc1da"
        },
        {
            "movieId": 4656717,
            "nomination": {
                "award": {
                    "title": "Берлинский кинофестиваль",
                    "year": 2023
                },
                "title": "Серебряный Медведь за лучшую режиссерскую работу"
            },
            "winning": true,
            "createdAt": "2023-03-05T20:02:24.943Z",
            "updatedAt": "2023-03-05T20:02:24.943Z",
            "id": "6404f550f5a911444ac8e17d"
        },
        {
            "movieId": 5121292,
            "nomination": {
                "award": {
                    "title": "Берлинский кинофестиваль",
                    "year": 2023
                },
                "title": "Приз Teddy - приз от жюри"
            },
            "winning": true,
            "createdAt": "2023-03-05T20:02:53.701Z",
            "updatedAt": "2023-03-05T20:02:53.701Z",
            "id": "6404f56df5a911444ac98556"
        },
        {
            "movieId": 5248864,
            "nomination": {
                "award": {
                    "title": "Оскар",
                    "year": 2023
                },
                "title": "Лучший короткометражный игровой фильм"
            },
            "winning": false,
            "createdAt": "2023-03-05T20:06:25.481Z",
            "updatedAt": "2023-03-05T20:06:25.481Z",
            "id": "6404f6410d8199489c5e26eb"
        },
        {
            "movieId": 796660,
            "nomination": {
                "award": {
                    "title": "Золотой глобус",
                    "year": 2023
                },
                "title": "Лучший драматический сериал"
            },
            "winning": false,
            "createdAt": "2023-03-05T20:10:01.300Z",
            "updatedAt": "2023-03-05T20:10:01.300Z",
            "id": "6404f7190d8199489c62702d"
        },
        {
            "movieId": 5261180,
            "nomination": {
                "award": {
                    "title": "Берлинский кинофестиваль",
                    "year": 2023
                },
                "title": "Премия Peace Film Award"
            },
            "winning": true,
            "createdAt": "2023-03-05T20:09:22.133Z",
            "updatedAt": "2023-03-05T20:09:22.133Z",
            "id": "6404f6f20d8199489c61cb22"
        },
        {
            "movieId": 5261010,
            "nomination": {
                "award": {
                    "title": "Берлинский кинофестиваль",
                    "year": 2023
                },
                "title": "Золотой Медведь за лучший короткометражный фильм"
            },
            "winning": true,
            "createdAt": "2023-03-05T20:04:33.348Z",
            "updatedAt": "2023-03-05T20:04:33.348Z",
            "id": "6404f5d1f5a911444acb78a8"
        },
        {
            "movieId": 5080742,
            "nomination": {
                "award": {
                    "title": "Оскар",
                    "year": 2023
                },
                "title": "Лучший короткометражный документальный фильм"
            },
            "winning": false,
            "createdAt": "2023-03-05T18:56:24.996Z",
            "updatedAt": "2023-03-05T18:56:24.996Z",
            "id": "6404e5d8b645fd8a22770d96"
        }
    ],
    "total": 27754,
    "limit": 10,
    "page": 1,
    "pages": 2776
}